\relax 
\providecommand\hyper@newdestlabel[2]{}
\providecommand\BKM@entry[2]{}
\providecommand\HyperFirstAtBeginDocument{\AtBeginDocument}
\HyperFirstAtBeginDocument{\ifx\hyper@anchor\@undefined
\global\let\oldcontentsline\contentsline
\gdef\contentsline#1#2#3#4{\oldcontentsline{#1}{#2}{#3}}
\global\let\oldnewlabel\newlabel
\gdef\newlabel#1#2{\newlabelxx{#1}#2}
\gdef\newlabelxx#1#2#3#4#5#6{\oldnewlabel{#1}{{#2}{#3}}}
\AtEndDocument{\ifx\hyper@anchor\@undefined
\let\contentsline\oldcontentsline
\let\newlabel\oldnewlabel
\fi}
\fi}
\global\let\hyper@last\relax 
\gdef\HyperFirstAtBeginDocument#1{#1}
\providecommand\HyField@AuxAddToFields[1]{}
\providecommand\HyField@AuxAddToCoFields[2]{}
\catcode `"\active 
\babel@aux{ngerman}{}
\@writefile{nav}{\headcommand {\slideentry {0}{0}{1}{1/1}{}{0}}}
\@writefile{nav}{\headcommand {\beamer@framepages {1}{1}}}
\@writefile{nav}{\headcommand {\slideentry {0}{0}{2}{2/2}{}{0}}}
\@writefile{nav}{\headcommand {\beamer@framepages {2}{2}}}
\@input{content.aux}
\BKM@entry{id=1,open,dest={4F75746C696E65302E31},srcline={1}}{4D6F7469766174696F6E}
\BKM@entry{id=2,open,dest={4F75746C696E65302E32},srcline={44}}{50616B65742D4D616E6167656D656E74}
\BKM@entry{id=3,open,dest={4F75746C696E65302E33},srcline={110}}{44656269616E205265706F7369746F7279}
\BKM@entry{id=4,open,dest={4F75746C696E65302E34},srcline={151}}{44656D6F6E7374726174696F6E}
\BKM@entry{id=5,open,dest={4F75746C696E65302E35},srcline={156}}{5175656C6C656E}
\@writefile{nav}{\headcommand {\beamer@partpages {1}{16}}}
\@writefile{nav}{\headcommand {\beamer@subsectionpages {16}{16}}}
\@writefile{nav}{\headcommand {\beamer@sectionpages {16}{16}}}
\@writefile{nav}{\headcommand {\beamer@documentpages {16}}}
\@writefile{nav}{\headcommand {\gdef \inserttotalframenumber {16}}}
