\babel@toc {ngerman}{}
\beamer@sectionintoc {1}{Motivation}{3}{0}{1}
\beamer@sectionintoc {2}{Paket-Management}{7}{0}{2}
\beamer@sectionintoc {3}{Debian Repository}{12}{0}{3}
\beamer@sectionintoc {4}{Demonstration}{15}{0}{4}
\beamer@sectionintoc {5}{Quellen}{16}{0}{5}
