PWD /home/peter/arbeit/praktikum-vortrag
INPUT /nix/store/0j7h6f8afld0zgbignbd0fgzkg86g7gy-texlive-combined-2017/share/texmf/web2c/texmf.cnf
INPUT /nix/store/0j7h6f8afld0zgbignbd0fgzkg86g7gy-texlive-combined-2017/share/texmf-var/web2c/pdftex/pdflatex.fmt
INPUT /home/peter/arbeit/praktikum-vortrag/header.tex
OUTPUT header.log
INPUT /nix/store/0j7h6f8afld0zgbignbd0fgzkg86g7gy-texlive-combined-2017/share/texmf/tex/latex/beamer/beamer.cls
INPUT /nix/store/0j7h6f8afld0zgbignbd0fgzkg86g7gy-texlive-combined-2017/share/texmf/tex/latex/beamer/beamer.cls
INPUT /nix/store/0j7h6f8afld0zgbignbd0fgzkg86g7gy-texlive-combined-2017/share/texmf/tex/latex/beamer/beamerbasemodes.sty
INPUT /nix/store/0j7h6f8afld0zgbignbd0fgzkg86g7gy-texlive-combined-2017/share/texmf/tex/latex/beamer/beamerbasemodes.sty
INPUT /nix/store/0j7h6f8afld0zgbignbd0fgzkg86g7gy-texlive-combined-2017/share/texmf/tex/latex/etoolbox/etoolbox.sty
INPUT /nix/store/0j7h6f8afld0zgbignbd0fgzkg86g7gy-texlive-combined-2017/share/texmf/tex/latex/etoolbox/etoolbox.sty
INPUT /nix/store/0j7h6f8afld0zgbignbd0fgzkg86g7gy-texlive-combined-2017/share/texmf/tex/latex/beamer/beamerbasedecode.sty
INPUT /nix/store/0j7h6f8afld0zgbignbd0fgzkg86g7gy-texlive-combined-2017/share/texmf/tex/latex/beamer/beamerbasedecode.sty
INPUT /nix/store/0j7h6f8afld0zgbignbd0fgzkg86g7gy-texlive-combined-2017/share/texmf/tex/generic/oberdiek/ifpdf.sty
INPUT /nix/store/0j7h6f8afld0zgbignbd0fgzkg86g7gy-texlive-combined-2017/share/texmf/tex/generic/oberdiek/ifpdf.sty
INPUT /nix/store/0j7h6f8afld0zgbignbd0fgzkg86g7gy-texlive-combined-2017/share/texmf/tex/latex/beamer/beamerbaseoptions.sty
INPUT /nix/store/0j7h6f8afld0zgbignbd0fgzkg86g7gy-texlive-combined-2017/share/texmf/tex/latex/beamer/beamerbaseoptions.sty
INPUT /nix/store/0j7h6f8afld0zgbignbd0fgzkg86g7gy-texlive-combined-2017/share/texmf/tex/latex/graphics/keyval.sty
INPUT /nix/store/0j7h6f8afld0zgbignbd0fgzkg86g7gy-texlive-combined-2017/share/texmf/tex/latex/graphics/keyval.sty
INPUT /nix/store/0j7h6f8afld0zgbignbd0fgzkg86g7gy-texlive-combined-2017/share/texmf/tex/latex/geometry/geometry.sty
INPUT /nix/store/0j7h6f8afld0zgbignbd0fgzkg86g7gy-texlive-combined-2017/share/texmf/tex/latex/geometry/geometry.sty
INPUT /nix/store/0j7h6f8afld0zgbignbd0fgzkg86g7gy-texlive-combined-2017/share/texmf/tex/generic/oberdiek/ifvtex.sty
INPUT /nix/store/0j7h6f8afld0zgbignbd0fgzkg86g7gy-texlive-combined-2017/share/texmf/tex/generic/oberdiek/ifvtex.sty
INPUT /nix/store/0j7h6f8afld0zgbignbd0fgzkg86g7gy-texlive-combined-2017/share/texmf/tex/generic/ifxetex/ifxetex.sty
INPUT /nix/store/0j7h6f8afld0zgbignbd0fgzkg86g7gy-texlive-combined-2017/share/texmf/tex/generic/ifxetex/ifxetex.sty
INPUT /nix/store/0j7h6f8afld0zgbignbd0fgzkg86g7gy-texlive-combined-2017/share/texmf/tex/latex/base/size12.clo
INPUT /nix/store/0j7h6f8afld0zgbignbd0fgzkg86g7gy-texlive-combined-2017/share/texmf/tex/latex/base/size12.clo
INPUT /nix/store/0j7h6f8afld0zgbignbd0fgzkg86g7gy-texlive-combined-2017/share/texmf/fonts/map/fontname/texfonts.map
INPUT /nix/store/0j7h6f8afld0zgbignbd0fgzkg86g7gy-texlive-combined-2017/share/texmf/fonts/map/fontname/texfonts.map
INPUT /nix/store/0j7h6f8afld0zgbignbd0fgzkg86g7gy-texlive-combined-2017/share/texmf/fonts/tfm/public/cm/cmr12.tfm
INPUT /nix/store/0j7h6f8afld0zgbignbd0fgzkg86g7gy-texlive-combined-2017/share/texmf/tex/latex/pgf/basiclayer/pgfcore.sty
INPUT /nix/store/0j7h6f8afld0zgbignbd0fgzkg86g7gy-texlive-combined-2017/share/texmf/tex/latex/pgf/basiclayer/pgfcore.sty
INPUT /nix/store/0j7h6f8afld0zgbignbd0fgzkg86g7gy-texlive-combined-2017/share/texmf/tex/latex/graphics/graphicx.sty
INPUT /nix/store/0j7h6f8afld0zgbignbd0fgzkg86g7gy-texlive-combined-2017/share/texmf/tex/latex/graphics/graphicx.sty
INPUT /nix/store/0j7h6f8afld0zgbignbd0fgzkg86g7gy-texlive-combined-2017/share/texmf/tex/latex/graphics/graphics.sty
INPUT /nix/store/0j7h6f8afld0zgbignbd0fgzkg86g7gy-texlive-combined-2017/share/texmf/tex/latex/graphics/graphics.sty
INPUT /nix/store/0j7h6f8afld0zgbignbd0fgzkg86g7gy-texlive-combined-2017/share/texmf/tex/latex/graphics/trig.sty
INPUT /nix/store/0j7h6f8afld0zgbignbd0fgzkg86g7gy-texlive-combined-2017/share/texmf/tex/latex/graphics/trig.sty
INPUT /nix/store/0j7h6f8afld0zgbignbd0fgzkg86g7gy-texlive-combined-2017/share/texmf/tex/latex/graphics-cfg/graphics.cfg
INPUT /nix/store/0j7h6f8afld0zgbignbd0fgzkg86g7gy-texlive-combined-2017/share/texmf/tex/latex/graphics-cfg/graphics.cfg
INPUT /nix/store/0j7h6f8afld0zgbignbd0fgzkg86g7gy-texlive-combined-2017/share/texmf/tex/latex/graphics-def/pdftex.def
INPUT /nix/store/0j7h6f8afld0zgbignbd0fgzkg86g7gy-texlive-combined-2017/share/texmf/tex/latex/graphics-def/pdftex.def
INPUT /nix/store/0j7h6f8afld0zgbignbd0fgzkg86g7gy-texlive-combined-2017/share/texmf/tex/latex/pgf/systemlayer/pgfsys.sty
INPUT /nix/store/0j7h6f8afld0zgbignbd0fgzkg86g7gy-texlive-combined-2017/share/texmf/tex/latex/pgf/systemlayer/pgfsys.sty
INPUT /nix/store/0j7h6f8afld0zgbignbd0fgzkg86g7gy-texlive-combined-2017/share/texmf/tex/latex/pgf/utilities/pgfrcs.sty
INPUT /nix/store/0j7h6f8afld0zgbignbd0fgzkg86g7gy-texlive-combined-2017/share/texmf/tex/latex/pgf/utilities/pgfrcs.sty
INPUT /nix/store/0j7h6f8afld0zgbignbd0fgzkg86g7gy-texlive-combined-2017/share/texmf/tex/generic/pgf/utilities/pgfutil-common.tex
INPUT /nix/store/0j7h6f8afld0zgbignbd0fgzkg86g7gy-texlive-combined-2017/share/texmf/tex/generic/pgf/utilities/pgfutil-common-lists.tex
INPUT /nix/store/0j7h6f8afld0zgbignbd0fgzkg86g7gy-texlive-combined-2017/share/texmf/tex/generic/pgf/utilities/pgfutil-latex.def
INPUT /nix/store/0j7h6f8afld0zgbignbd0fgzkg86g7gy-texlive-combined-2017/share/texmf/tex/latex/ms/everyshi.sty
INPUT /nix/store/0j7h6f8afld0zgbignbd0fgzkg86g7gy-texlive-combined-2017/share/texmf/tex/latex/ms/everyshi.sty
INPUT /nix/store/0j7h6f8afld0zgbignbd0fgzkg86g7gy-texlive-combined-2017/share/texmf/tex/generic/pgf/utilities/pgfrcs.code.tex
INPUT /nix/store/0j7h6f8afld0zgbignbd0fgzkg86g7gy-texlive-combined-2017/share/texmf/tex/generic/pgf/utilities/pgfrcs.code.tex
INPUT /nix/store/0j7h6f8afld0zgbignbd0fgzkg86g7gy-texlive-combined-2017/share/texmf/tex/generic/pgf/systemlayer/pgfsys.code.tex
INPUT /nix/store/0j7h6f8afld0zgbignbd0fgzkg86g7gy-texlive-combined-2017/share/texmf/tex/generic/pgf/systemlayer/pgfsys.code.tex
INPUT /nix/store/0j7h6f8afld0zgbignbd0fgzkg86g7gy-texlive-combined-2017/share/texmf/tex/generic/pgf/utilities/pgfkeys.code.tex
INPUT /nix/store/0j7h6f8afld0zgbignbd0fgzkg86g7gy-texlive-combined-2017/share/texmf/tex/generic/pgf/utilities/pgfkeysfiltered.code.tex
INPUT /nix/store/0j7h6f8afld0zgbignbd0fgzkg86g7gy-texlive-combined-2017/share/texmf/tex/generic/pgf/systemlayer/pgf.cfg
INPUT /nix/store/0j7h6f8afld0zgbignbd0fgzkg86g7gy-texlive-combined-2017/share/texmf/tex/generic/pgf/systemlayer/pgfsys-pdftex.def
INPUT /nix/store/0j7h6f8afld0zgbignbd0fgzkg86g7gy-texlive-combined-2017/share/texmf/tex/generic/pgf/systemlayer/pgfsys-pdftex.def
INPUT /nix/store/0j7h6f8afld0zgbignbd0fgzkg86g7gy-texlive-combined-2017/share/texmf/tex/generic/pgf/systemlayer/pgfsys-common-pdf.def
INPUT /nix/store/0j7h6f8afld0zgbignbd0fgzkg86g7gy-texlive-combined-2017/share/texmf/tex/generic/pgf/systemlayer/pgfsyssoftpath.code.tex
INPUT /nix/store/0j7h6f8afld0zgbignbd0fgzkg86g7gy-texlive-combined-2017/share/texmf/tex/generic/pgf/systemlayer/pgfsyssoftpath.code.tex
INPUT /nix/store/0j7h6f8afld0zgbignbd0fgzkg86g7gy-texlive-combined-2017/share/texmf/tex/generic/pgf/systemlayer/pgfsysprotocol.code.tex
INPUT /nix/store/0j7h6f8afld0zgbignbd0fgzkg86g7gy-texlive-combined-2017/share/texmf/tex/generic/pgf/systemlayer/pgfsysprotocol.code.tex
INPUT /nix/store/0j7h6f8afld0zgbignbd0fgzkg86g7gy-texlive-combined-2017/share/texmf/tex/latex/xcolor/xcolor.sty
INPUT /nix/store/0j7h6f8afld0zgbignbd0fgzkg86g7gy-texlive-combined-2017/share/texmf/tex/latex/xcolor/xcolor.sty
INPUT /nix/store/0j7h6f8afld0zgbignbd0fgzkg86g7gy-texlive-combined-2017/share/texmf/tex/latex/graphics-cfg/color.cfg
INPUT /nix/store/0j7h6f8afld0zgbignbd0fgzkg86g7gy-texlive-combined-2017/share/texmf/tex/latex/graphics-cfg/color.cfg
INPUT /nix/store/0j7h6f8afld0zgbignbd0fgzkg86g7gy-texlive-combined-2017/share/texmf/tex/generic/pgf/basiclayer/pgfcore.code.tex
INPUT /nix/store/0j7h6f8afld0zgbignbd0fgzkg86g7gy-texlive-combined-2017/share/texmf/tex/generic/pgf/basiclayer/pgfcore.code.tex
INPUT /nix/store/0j7h6f8afld0zgbignbd0fgzkg86g7gy-texlive-combined-2017/share/texmf/tex/generic/pgf/math/pgfmath.code.tex
INPUT /nix/store/0j7h6f8afld0zgbignbd0fgzkg86g7gy-texlive-combined-2017/share/texmf/tex/generic/pgf/math/pgfmathcalc.code.tex
INPUT /nix/store/0j7h6f8afld0zgbignbd0fgzkg86g7gy-texlive-combined-2017/share/texmf/tex/generic/pgf/math/pgfmathutil.code.tex
INPUT /nix/store/0j7h6f8afld0zgbignbd0fgzkg86g7gy-texlive-combined-2017/share/texmf/tex/generic/pgf/math/pgfmathparser.code.tex
INPUT /nix/store/0j7h6f8afld0zgbignbd0fgzkg86g7gy-texlive-combined-2017/share/texmf/tex/generic/pgf/math/pgfmathfunctions.code.tex
INPUT /nix/store/0j7h6f8afld0zgbignbd0fgzkg86g7gy-texlive-combined-2017/share/texmf/tex/generic/pgf/math/pgfmathfunctions.basic.code.tex
INPUT /nix/store/0j7h6f8afld0zgbignbd0fgzkg86g7gy-texlive-combined-2017/share/texmf/tex/generic/pgf/math/pgfmathfunctions.trigonometric.code.tex
INPUT /nix/store/0j7h6f8afld0zgbignbd0fgzkg86g7gy-texlive-combined-2017/share/texmf/tex/generic/pgf/math/pgfmathfunctions.random.code.tex
INPUT /nix/store/0j7h6f8afld0zgbignbd0fgzkg86g7gy-texlive-combined-2017/share/texmf/tex/generic/pgf/math/pgfmathfunctions.comparison.code.tex
INPUT /nix/store/0j7h6f8afld0zgbignbd0fgzkg86g7gy-texlive-combined-2017/share/texmf/tex/generic/pgf/math/pgfmathfunctions.base.code.tex
INPUT /nix/store/0j7h6f8afld0zgbignbd0fgzkg86g7gy-texlive-combined-2017/share/texmf/tex/generic/pgf/math/pgfmathfunctions.round.code.tex
INPUT /nix/store/0j7h6f8afld0zgbignbd0fgzkg86g7gy-texlive-combined-2017/share/texmf/tex/generic/pgf/math/pgfmathfunctions.misc.code.tex
INPUT /nix/store/0j7h6f8afld0zgbignbd0fgzkg86g7gy-texlive-combined-2017/share/texmf/tex/generic/pgf/math/pgfmathfunctions.integerarithmetics.code.tex
INPUT /nix/store/0j7h6f8afld0zgbignbd0fgzkg86g7gy-texlive-combined-2017/share/texmf/tex/generic/pgf/math/pgfmathfloat.code.tex
INPUT /nix/store/0j7h6f8afld0zgbignbd0fgzkg86g7gy-texlive-combined-2017/share/texmf/tex/generic/pgf/basiclayer/pgfcorepoints.code.tex
INPUT /nix/store/0j7h6f8afld0zgbignbd0fgzkg86g7gy-texlive-combined-2017/share/texmf/tex/generic/pgf/basiclayer/pgfcorepathconstruct.code.tex
INPUT /nix/store/0j7h6f8afld0zgbignbd0fgzkg86g7gy-texlive-combined-2017/share/texmf/tex/generic/pgf/basiclayer/pgfcorepathusage.code.tex
INPUT /nix/store/0j7h6f8afld0zgbignbd0fgzkg86g7gy-texlive-combined-2017/share/texmf/tex/generic/pgf/basiclayer/pgfcorescopes.code.tex
INPUT /nix/store/0j7h6f8afld0zgbignbd0fgzkg86g7gy-texlive-combined-2017/share/texmf/tex/generic/pgf/basiclayer/pgfcoregraphicstate.code.tex
INPUT /nix/store/0j7h6f8afld0zgbignbd0fgzkg86g7gy-texlive-combined-2017/share/texmf/tex/generic/pgf/basiclayer/pgfcoretransformations.code.tex
INPUT /nix/store/0j7h6f8afld0zgbignbd0fgzkg86g7gy-texlive-combined-2017/share/texmf/tex/generic/pgf/basiclayer/pgfcorequick.code.tex
INPUT /nix/store/0j7h6f8afld0zgbignbd0fgzkg86g7gy-texlive-combined-2017/share/texmf/tex/generic/pgf/basiclayer/pgfcoreobjects.code.tex
INPUT /nix/store/0j7h6f8afld0zgbignbd0fgzkg86g7gy-texlive-combined-2017/share/texmf/tex/generic/pgf/basiclayer/pgfcorepathprocessing.code.tex
INPUT /nix/store/0j7h6f8afld0zgbignbd0fgzkg86g7gy-texlive-combined-2017/share/texmf/tex/generic/pgf/basiclayer/pgfcorearrows.code.tex
INPUT /nix/store/0j7h6f8afld0zgbignbd0fgzkg86g7gy-texlive-combined-2017/share/texmf/tex/generic/pgf/basiclayer/pgfcoreshade.code.tex
INPUT /nix/store/0j7h6f8afld0zgbignbd0fgzkg86g7gy-texlive-combined-2017/share/texmf/tex/generic/pgf/basiclayer/pgfcoreimage.code.tex
INPUT /nix/store/0j7h6f8afld0zgbignbd0fgzkg86g7gy-texlive-combined-2017/share/texmf/tex/generic/pgf/basiclayer/pgfcoreexternal.code.tex
INPUT /nix/store/0j7h6f8afld0zgbignbd0fgzkg86g7gy-texlive-combined-2017/share/texmf/tex/generic/pgf/basiclayer/pgfcorelayers.code.tex
INPUT /nix/store/0j7h6f8afld0zgbignbd0fgzkg86g7gy-texlive-combined-2017/share/texmf/tex/generic/pgf/basiclayer/pgfcoretransparency.code.tex
INPUT /nix/store/0j7h6f8afld0zgbignbd0fgzkg86g7gy-texlive-combined-2017/share/texmf/tex/generic/pgf/basiclayer/pgfcorepatterns.code.tex
INPUT /nix/store/0j7h6f8afld0zgbignbd0fgzkg86g7gy-texlive-combined-2017/share/texmf/tex/latex/pgf/utilities/xxcolor.sty
INPUT /nix/store/0j7h6f8afld0zgbignbd0fgzkg86g7gy-texlive-combined-2017/share/texmf/tex/latex/pgf/utilities/xxcolor.sty
INPUT /nix/store/0j7h6f8afld0zgbignbd0fgzkg86g7gy-texlive-combined-2017/share/texmf/tex/generic/oberdiek/atbegshi.sty
INPUT /nix/store/0j7h6f8afld0zgbignbd0fgzkg86g7gy-texlive-combined-2017/share/texmf/tex/generic/oberdiek/atbegshi.sty
INPUT /nix/store/0j7h6f8afld0zgbignbd0fgzkg86g7gy-texlive-combined-2017/share/texmf/tex/generic/oberdiek/infwarerr.sty
INPUT /nix/store/0j7h6f8afld0zgbignbd0fgzkg86g7gy-texlive-combined-2017/share/texmf/tex/generic/oberdiek/infwarerr.sty
INPUT /nix/store/0j7h6f8afld0zgbignbd0fgzkg86g7gy-texlive-combined-2017/share/texmf/tex/generic/oberdiek/ltxcmds.sty
INPUT /nix/store/0j7h6f8afld0zgbignbd0fgzkg86g7gy-texlive-combined-2017/share/texmf/tex/generic/oberdiek/ltxcmds.sty
INPUT /nix/store/0j7h6f8afld0zgbignbd0fgzkg86g7gy-texlive-combined-2017/share/texmf/tex/latex/hyperref/hyperref.sty
INPUT /nix/store/0j7h6f8afld0zgbignbd0fgzkg86g7gy-texlive-combined-2017/share/texmf/tex/latex/hyperref/hyperref.sty
INPUT /nix/store/0j7h6f8afld0zgbignbd0fgzkg86g7gy-texlive-combined-2017/share/texmf/tex/generic/oberdiek/hobsub-hyperref.sty
INPUT /nix/store/0j7h6f8afld0zgbignbd0fgzkg86g7gy-texlive-combined-2017/share/texmf/tex/generic/oberdiek/hobsub-hyperref.sty
INPUT /nix/store/0j7h6f8afld0zgbignbd0fgzkg86g7gy-texlive-combined-2017/share/texmf/tex/generic/oberdiek/hobsub-hyperref.sty
INPUT /nix/store/0j7h6f8afld0zgbignbd0fgzkg86g7gy-texlive-combined-2017/share/texmf/tex/generic/oberdiek/hobsub-generic.sty
INPUT /nix/store/0j7h6f8afld0zgbignbd0fgzkg86g7gy-texlive-combined-2017/share/texmf/tex/generic/oberdiek/hobsub-generic.sty
INPUT /nix/store/0j7h6f8afld0zgbignbd0fgzkg86g7gy-texlive-combined-2017/share/texmf/tex/latex/oberdiek/auxhook.sty
INPUT /nix/store/0j7h6f8afld0zgbignbd0fgzkg86g7gy-texlive-combined-2017/share/texmf/tex/latex/oberdiek/auxhook.sty
INPUT /nix/store/0j7h6f8afld0zgbignbd0fgzkg86g7gy-texlive-combined-2017/share/texmf/tex/latex/oberdiek/kvoptions.sty
INPUT /nix/store/0j7h6f8afld0zgbignbd0fgzkg86g7gy-texlive-combined-2017/share/texmf/tex/latex/oberdiek/kvoptions.sty
INPUT /nix/store/0j7h6f8afld0zgbignbd0fgzkg86g7gy-texlive-combined-2017/share/texmf/tex/latex/hyperref/pd1enc.def
INPUT /nix/store/0j7h6f8afld0zgbignbd0fgzkg86g7gy-texlive-combined-2017/share/texmf/tex/latex/hyperref/pd1enc.def
INPUT /nix/store/0j7h6f8afld0zgbignbd0fgzkg86g7gy-texlive-combined-2017/share/texmf/tex/latex/latexconfig/hyperref.cfg
INPUT /nix/store/0j7h6f8afld0zgbignbd0fgzkg86g7gy-texlive-combined-2017/share/texmf/tex/latex/latexconfig/hyperref.cfg
INPUT /nix/store/0j7h6f8afld0zgbignbd0fgzkg86g7gy-texlive-combined-2017/share/texmf/tex/latex/url/url.sty
INPUT /nix/store/0j7h6f8afld0zgbignbd0fgzkg86g7gy-texlive-combined-2017/share/texmf/tex/latex/url/url.sty
INPUT /nix/store/0j7h6f8afld0zgbignbd0fgzkg86g7gy-texlive-combined-2017/share/texmf/tex/latex/hyperref/hpdftex.def
INPUT /nix/store/0j7h6f8afld0zgbignbd0fgzkg86g7gy-texlive-combined-2017/share/texmf/tex/latex/hyperref/hpdftex.def
INPUT /nix/store/0j7h6f8afld0zgbignbd0fgzkg86g7gy-texlive-combined-2017/share/texmf/tex/latex/oberdiek/rerunfilecheck.sty
INPUT /nix/store/0j7h6f8afld0zgbignbd0fgzkg86g7gy-texlive-combined-2017/share/texmf/tex/latex/oberdiek/rerunfilecheck.sty
INPUT /nix/store/0j7h6f8afld0zgbignbd0fgzkg86g7gy-texlive-combined-2017/share/texmf/tex/latex/beamer/beamerbaserequires.sty
INPUT /nix/store/0j7h6f8afld0zgbignbd0fgzkg86g7gy-texlive-combined-2017/share/texmf/tex/latex/beamer/beamerbaserequires.sty
INPUT /nix/store/0j7h6f8afld0zgbignbd0fgzkg86g7gy-texlive-combined-2017/share/texmf/tex/latex/beamer/beamerbasecompatibility.sty
INPUT /nix/store/0j7h6f8afld0zgbignbd0fgzkg86g7gy-texlive-combined-2017/share/texmf/tex/latex/beamer/beamerbasecompatibility.sty
INPUT /nix/store/0j7h6f8afld0zgbignbd0fgzkg86g7gy-texlive-combined-2017/share/texmf/tex/latex/beamer/beamerbasefont.sty
INPUT /nix/store/0j7h6f8afld0zgbignbd0fgzkg86g7gy-texlive-combined-2017/share/texmf/tex/latex/beamer/beamerbasefont.sty
INPUT /nix/store/0j7h6f8afld0zgbignbd0fgzkg86g7gy-texlive-combined-2017/share/texmf/tex/latex/amsfonts/amssymb.sty
INPUT /nix/store/0j7h6f8afld0zgbignbd0fgzkg86g7gy-texlive-combined-2017/share/texmf/tex/latex/amsfonts/amssymb.sty
INPUT /nix/store/0j7h6f8afld0zgbignbd0fgzkg86g7gy-texlive-combined-2017/share/texmf/tex/latex/amsfonts/amsfonts.sty
INPUT /nix/store/0j7h6f8afld0zgbignbd0fgzkg86g7gy-texlive-combined-2017/share/texmf/tex/latex/amsfonts/amsfonts.sty
INPUT /nix/store/0j7h6f8afld0zgbignbd0fgzkg86g7gy-texlive-combined-2017/share/texmf/tex/latex/sansmathaccent/sansmathaccent.sty
INPUT /nix/store/0j7h6f8afld0zgbignbd0fgzkg86g7gy-texlive-combined-2017/share/texmf/tex/latex/sansmathaccent/sansmathaccent.sty
INPUT /nix/store/0j7h6f8afld0zgbignbd0fgzkg86g7gy-texlive-combined-2017/share/texmf/tex/latex/sansmathaccent/sansmathaccent.sty
INPUT /nix/store/0j7h6f8afld0zgbignbd0fgzkg86g7gy-texlive-combined-2017/share/texmf/tex/latex/filehook/filehook.sty
INPUT /nix/store/0j7h6f8afld0zgbignbd0fgzkg86g7gy-texlive-combined-2017/share/texmf/tex/latex/filehook/filehook.sty
INPUT /nix/store/0j7h6f8afld0zgbignbd0fgzkg86g7gy-texlive-combined-2017/share/texmf/tex/latex/filehook/filehook.sty
INPUT /nix/store/0j7h6f8afld0zgbignbd0fgzkg86g7gy-texlive-combined-2017/share/texmf/tex/latex/beamer/beamerbasetranslator.sty
INPUT /nix/store/0j7h6f8afld0zgbignbd0fgzkg86g7gy-texlive-combined-2017/share/texmf/tex/latex/beamer/beamerbasetranslator.sty
INPUT /nix/store/0j7h6f8afld0zgbignbd0fgzkg86g7gy-texlive-combined-2017/share/texmf/tex/latex/translator/translator.sty
INPUT /nix/store/0j7h6f8afld0zgbignbd0fgzkg86g7gy-texlive-combined-2017/share/texmf/tex/latex/translator/translator.sty
INPUT /nix/store/0j7h6f8afld0zgbignbd0fgzkg86g7gy-texlive-combined-2017/share/texmf/tex/latex/beamer/beamerbasemisc.sty
INPUT /nix/store/0j7h6f8afld0zgbignbd0fgzkg86g7gy-texlive-combined-2017/share/texmf/tex/latex/beamer/beamerbasemisc.sty
INPUT /nix/store/0j7h6f8afld0zgbignbd0fgzkg86g7gy-texlive-combined-2017/share/texmf/tex/latex/beamer/beamerbasetwoscreens.sty
INPUT /nix/store/0j7h6f8afld0zgbignbd0fgzkg86g7gy-texlive-combined-2017/share/texmf/tex/latex/beamer/beamerbasetwoscreens.sty
INPUT /nix/store/0j7h6f8afld0zgbignbd0fgzkg86g7gy-texlive-combined-2017/share/texmf/tex/latex/beamer/beamerbaseoverlay.sty
INPUT /nix/store/0j7h6f8afld0zgbignbd0fgzkg86g7gy-texlive-combined-2017/share/texmf/tex/latex/beamer/beamerbaseoverlay.sty
INPUT /nix/store/0j7h6f8afld0zgbignbd0fgzkg86g7gy-texlive-combined-2017/share/texmf/tex/latex/beamer/beamerbasetitle.sty
INPUT /nix/store/0j7h6f8afld0zgbignbd0fgzkg86g7gy-texlive-combined-2017/share/texmf/tex/latex/beamer/beamerbasetitle.sty
INPUT /nix/store/0j7h6f8afld0zgbignbd0fgzkg86g7gy-texlive-combined-2017/share/texmf/tex/latex/beamer/beamerbasesection.sty
INPUT /nix/store/0j7h6f8afld0zgbignbd0fgzkg86g7gy-texlive-combined-2017/share/texmf/tex/latex/beamer/beamerbasesection.sty
INPUT /nix/store/0j7h6f8afld0zgbignbd0fgzkg86g7gy-texlive-combined-2017/share/texmf/tex/latex/beamer/beamerbaseframe.sty
INPUT /nix/store/0j7h6f8afld0zgbignbd0fgzkg86g7gy-texlive-combined-2017/share/texmf/tex/latex/beamer/beamerbaseframe.sty
INPUT /nix/store/0j7h6f8afld0zgbignbd0fgzkg86g7gy-texlive-combined-2017/share/texmf/tex/latex/beamer/beamerbaseverbatim.sty
INPUT /nix/store/0j7h6f8afld0zgbignbd0fgzkg86g7gy-texlive-combined-2017/share/texmf/tex/latex/beamer/beamerbaseverbatim.sty
INPUT /nix/store/0j7h6f8afld0zgbignbd0fgzkg86g7gy-texlive-combined-2017/share/texmf/tex/latex/beamer/beamerbaseframesize.sty
INPUT /nix/store/0j7h6f8afld0zgbignbd0fgzkg86g7gy-texlive-combined-2017/share/texmf/tex/latex/beamer/beamerbaseframesize.sty
INPUT /nix/store/0j7h6f8afld0zgbignbd0fgzkg86g7gy-texlive-combined-2017/share/texmf/tex/latex/beamer/beamerbaseframecomponents.sty
INPUT /nix/store/0j7h6f8afld0zgbignbd0fgzkg86g7gy-texlive-combined-2017/share/texmf/tex/latex/beamer/beamerbaseframecomponents.sty
INPUT /nix/store/0j7h6f8afld0zgbignbd0fgzkg86g7gy-texlive-combined-2017/share/texmf/tex/latex/beamer/beamerbasecolor.sty
INPUT /nix/store/0j7h6f8afld0zgbignbd0fgzkg86g7gy-texlive-combined-2017/share/texmf/tex/latex/beamer/beamerbasecolor.sty
INPUT /nix/store/0j7h6f8afld0zgbignbd0fgzkg86g7gy-texlive-combined-2017/share/texmf/tex/latex/beamer/beamerbasenotes.sty
INPUT /nix/store/0j7h6f8afld0zgbignbd0fgzkg86g7gy-texlive-combined-2017/share/texmf/tex/latex/beamer/beamerbasenotes.sty
INPUT /nix/store/0j7h6f8afld0zgbignbd0fgzkg86g7gy-texlive-combined-2017/share/texmf/tex/latex/beamer/beamerbasetoc.sty
INPUT /nix/store/0j7h6f8afld0zgbignbd0fgzkg86g7gy-texlive-combined-2017/share/texmf/tex/latex/beamer/beamerbasetoc.sty
INPUT /nix/store/0j7h6f8afld0zgbignbd0fgzkg86g7gy-texlive-combined-2017/share/texmf/tex/latex/beamer/beamerbasetemplates.sty
INPUT /nix/store/0j7h6f8afld0zgbignbd0fgzkg86g7gy-texlive-combined-2017/share/texmf/tex/latex/beamer/beamerbasetemplates.sty
INPUT /nix/store/0j7h6f8afld0zgbignbd0fgzkg86g7gy-texlive-combined-2017/share/texmf/tex/latex/beamer/beamerbaseauxtemplates.sty
INPUT /nix/store/0j7h6f8afld0zgbignbd0fgzkg86g7gy-texlive-combined-2017/share/texmf/tex/latex/beamer/beamerbaseauxtemplates.sty
INPUT /nix/store/0j7h6f8afld0zgbignbd0fgzkg86g7gy-texlive-combined-2017/share/texmf/tex/latex/beamer/beamerbaseboxes.sty
INPUT /nix/store/0j7h6f8afld0zgbignbd0fgzkg86g7gy-texlive-combined-2017/share/texmf/tex/latex/beamer/beamerbaseboxes.sty
INPUT /nix/store/0j7h6f8afld0zgbignbd0fgzkg86g7gy-texlive-combined-2017/share/texmf/tex/latex/beamer/beamerbaselocalstructure.sty
INPUT /nix/store/0j7h6f8afld0zgbignbd0fgzkg86g7gy-texlive-combined-2017/share/texmf/tex/latex/beamer/beamerbaselocalstructure.sty
INPUT /nix/store/0j7h6f8afld0zgbignbd0fgzkg86g7gy-texlive-combined-2017/share/texmf/tex/latex/tools/enumerate.sty
INPUT /nix/store/0j7h6f8afld0zgbignbd0fgzkg86g7gy-texlive-combined-2017/share/texmf/tex/latex/tools/enumerate.sty
INPUT /nix/store/0j7h6f8afld0zgbignbd0fgzkg86g7gy-texlive-combined-2017/share/texmf/tex/latex/beamer/beamerbasenavigation.sty
INPUT /nix/store/0j7h6f8afld0zgbignbd0fgzkg86g7gy-texlive-combined-2017/share/texmf/tex/latex/beamer/beamerbasenavigation.sty
INPUT /nix/store/0j7h6f8afld0zgbignbd0fgzkg86g7gy-texlive-combined-2017/share/texmf/tex/latex/beamer/beamerbasetheorems.sty
INPUT /nix/store/0j7h6f8afld0zgbignbd0fgzkg86g7gy-texlive-combined-2017/share/texmf/tex/latex/beamer/beamerbasetheorems.sty
INPUT /nix/store/0j7h6f8afld0zgbignbd0fgzkg86g7gy-texlive-combined-2017/share/texmf/tex/latex/amsmath/amsmath.sty
INPUT /nix/store/0j7h6f8afld0zgbignbd0fgzkg86g7gy-texlive-combined-2017/share/texmf/tex/latex/amsmath/amsmath.sty
INPUT /nix/store/0j7h6f8afld0zgbignbd0fgzkg86g7gy-texlive-combined-2017/share/texmf/tex/latex/amsmath/amstext.sty
INPUT /nix/store/0j7h6f8afld0zgbignbd0fgzkg86g7gy-texlive-combined-2017/share/texmf/tex/latex/amsmath/amstext.sty
INPUT /nix/store/0j7h6f8afld0zgbignbd0fgzkg86g7gy-texlive-combined-2017/share/texmf/tex/latex/amsmath/amsgen.sty
INPUT /nix/store/0j7h6f8afld0zgbignbd0fgzkg86g7gy-texlive-combined-2017/share/texmf/tex/latex/amsmath/amsgen.sty
INPUT /nix/store/0j7h6f8afld0zgbignbd0fgzkg86g7gy-texlive-combined-2017/share/texmf/tex/latex/amsmath/amsbsy.sty
INPUT /nix/store/0j7h6f8afld0zgbignbd0fgzkg86g7gy-texlive-combined-2017/share/texmf/tex/latex/amsmath/amsbsy.sty
INPUT /nix/store/0j7h6f8afld0zgbignbd0fgzkg86g7gy-texlive-combined-2017/share/texmf/tex/latex/amsmath/amsopn.sty
INPUT /nix/store/0j7h6f8afld0zgbignbd0fgzkg86g7gy-texlive-combined-2017/share/texmf/tex/latex/amsmath/amsopn.sty
INPUT /nix/store/0j7h6f8afld0zgbignbd0fgzkg86g7gy-texlive-combined-2017/share/texmf/tex/latex/amscls/amsthm.sty
INPUT /nix/store/0j7h6f8afld0zgbignbd0fgzkg86g7gy-texlive-combined-2017/share/texmf/tex/latex/amscls/amsthm.sty
INPUT /nix/store/0j7h6f8afld0zgbignbd0fgzkg86g7gy-texlive-combined-2017/share/texmf/tex/latex/beamer/beamerbasethemes.sty
INPUT /nix/store/0j7h6f8afld0zgbignbd0fgzkg86g7gy-texlive-combined-2017/share/texmf/tex/latex/beamer/beamerbasethemes.sty
INPUT /nix/store/0j7h6f8afld0zgbignbd0fgzkg86g7gy-texlive-combined-2017/share/texmf/fonts/tfm/public/cm/cmss12.tfm
INPUT /nix/store/0j7h6f8afld0zgbignbd0fgzkg86g7gy-texlive-combined-2017/share/texmf/tex/latex/beamer/beamerthemedefault.sty
INPUT /nix/store/0j7h6f8afld0zgbignbd0fgzkg86g7gy-texlive-combined-2017/share/texmf/tex/latex/beamer/beamerthemedefault.sty
INPUT /nix/store/0j7h6f8afld0zgbignbd0fgzkg86g7gy-texlive-combined-2017/share/texmf/tex/latex/beamer/beamerfontthemedefault.sty
INPUT /nix/store/0j7h6f8afld0zgbignbd0fgzkg86g7gy-texlive-combined-2017/share/texmf/tex/latex/beamer/beamerfontthemedefault.sty
INPUT /nix/store/0j7h6f8afld0zgbignbd0fgzkg86g7gy-texlive-combined-2017/share/texmf/tex/latex/beamer/beamercolorthemedefault.sty
INPUT /nix/store/0j7h6f8afld0zgbignbd0fgzkg86g7gy-texlive-combined-2017/share/texmf/tex/latex/beamer/beamercolorthemedefault.sty
INPUT /nix/store/0j7h6f8afld0zgbignbd0fgzkg86g7gy-texlive-combined-2017/share/texmf/tex/latex/beamer/beamerinnerthemedefault.sty
INPUT /nix/store/0j7h6f8afld0zgbignbd0fgzkg86g7gy-texlive-combined-2017/share/texmf/tex/latex/beamer/beamerinnerthemedefault.sty
INPUT /nix/store/0j7h6f8afld0zgbignbd0fgzkg86g7gy-texlive-combined-2017/share/texmf/tex/latex/beamer/beamericonbook.pdf
OUTPUT header.pdf
INPUT /nix/store/0j7h6f8afld0zgbignbd0fgzkg86g7gy-texlive-combined-2017/share/texmf/tex/latex/beamer/beamericonbook.pdf
INPUT /nix/store/0j7h6f8afld0zgbignbd0fgzkg86g7gy-texlive-combined-2017/share/texmf/tex/latex/beamer/beamericonbook.20.pdf
INPUT /nix/store/0j7h6f8afld0zgbignbd0fgzkg86g7gy-texlive-combined-2017/share/texmf/tex/latex/beamer/beamericonbook.20.pdf
INPUT /nix/store/0j7h6f8afld0zgbignbd0fgzkg86g7gy-texlive-combined-2017/share/texmf/tex/latex/beamer/beamericonarticle.pdf
INPUT /nix/store/0j7h6f8afld0zgbignbd0fgzkg86g7gy-texlive-combined-2017/share/texmf/tex/latex/beamer/beamericonarticle.pdf
INPUT /nix/store/0j7h6f8afld0zgbignbd0fgzkg86g7gy-texlive-combined-2017/share/texmf/tex/latex/beamer/beamericonarticle.20.pdf
INPUT /nix/store/0j7h6f8afld0zgbignbd0fgzkg86g7gy-texlive-combined-2017/share/texmf/tex/latex/beamer/beamericonarticle.20.pdf
INPUT /nix/store/0j7h6f8afld0zgbignbd0fgzkg86g7gy-texlive-combined-2017/share/texmf/tex/latex/beamer/beamericononline.pdf
INPUT /nix/store/0j7h6f8afld0zgbignbd0fgzkg86g7gy-texlive-combined-2017/share/texmf/tex/latex/beamer/beamericononline.pdf
INPUT /nix/store/0j7h6f8afld0zgbignbd0fgzkg86g7gy-texlive-combined-2017/share/texmf/tex/latex/beamer/beamericononline.20.pdf
INPUT /nix/store/0j7h6f8afld0zgbignbd0fgzkg86g7gy-texlive-combined-2017/share/texmf/tex/latex/beamer/beamericononline.20.pdf
INPUT /nix/store/0j7h6f8afld0zgbignbd0fgzkg86g7gy-texlive-combined-2017/share/texmf/tex/latex/beamer/beamerouterthemedefault.sty
INPUT /nix/store/0j7h6f8afld0zgbignbd0fgzkg86g7gy-texlive-combined-2017/share/texmf/tex/latex/beamer/beamerouterthemedefault.sty
INPUT /nix/store/0j7h6f8afld0zgbignbd0fgzkg86g7gy-texlive-combined-2017/share/texmf/tex/generic/babel/babel.sty
INPUT /nix/store/0j7h6f8afld0zgbignbd0fgzkg86g7gy-texlive-combined-2017/share/texmf/tex/generic/babel/babel.sty
INPUT /nix/store/0j7h6f8afld0zgbignbd0fgzkg86g7gy-texlive-combined-2017/share/texmf/tex/generic/babel/switch.def
INPUT /nix/store/0j7h6f8afld0zgbignbd0fgzkg86g7gy-texlive-combined-2017/share/texmf/tex/generic/babel-german/ngerman.ldf
INPUT /nix/store/0j7h6f8afld0zgbignbd0fgzkg86g7gy-texlive-combined-2017/share/texmf/tex/generic/babel-german/ngerman.ldf
INPUT /nix/store/0j7h6f8afld0zgbignbd0fgzkg86g7gy-texlive-combined-2017/share/texmf/tex/generic/babel-german/ngermanb.ldf
INPUT /nix/store/0j7h6f8afld0zgbignbd0fgzkg86g7gy-texlive-combined-2017/share/texmf/tex/generic/babel/babel.def
INPUT /nix/store/0j7h6f8afld0zgbignbd0fgzkg86g7gy-texlive-combined-2017/share/texmf/tex/generic/babel/txtbabel.def
INPUT /nix/store/0j7h6f8afld0zgbignbd0fgzkg86g7gy-texlive-combined-2017/share/texmf/tex/latex/psnfss/mathptmx.sty
INPUT /nix/store/0j7h6f8afld0zgbignbd0fgzkg86g7gy-texlive-combined-2017/share/texmf/tex/latex/psnfss/mathptmx.sty
INPUT /nix/store/0j7h6f8afld0zgbignbd0fgzkg86g7gy-texlive-combined-2017/share/texmf/tex/latex/base/inputenc.sty
INPUT /nix/store/0j7h6f8afld0zgbignbd0fgzkg86g7gy-texlive-combined-2017/share/texmf/tex/latex/base/inputenc.sty
INPUT /nix/store/0j7h6f8afld0zgbignbd0fgzkg86g7gy-texlive-combined-2017/share/texmf/tex/latex/base/utf8.def
INPUT /nix/store/0j7h6f8afld0zgbignbd0fgzkg86g7gy-texlive-combined-2017/share/texmf/tex/latex/base/utf8.def
INPUT /nix/store/0j7h6f8afld0zgbignbd0fgzkg86g7gy-texlive-combined-2017/share/texmf/tex/latex/base/t1enc.dfu
INPUT /nix/store/0j7h6f8afld0zgbignbd0fgzkg86g7gy-texlive-combined-2017/share/texmf/tex/latex/base/t1enc.dfu
INPUT /nix/store/0j7h6f8afld0zgbignbd0fgzkg86g7gy-texlive-combined-2017/share/texmf/tex/latex/base/ot1enc.dfu
INPUT /nix/store/0j7h6f8afld0zgbignbd0fgzkg86g7gy-texlive-combined-2017/share/texmf/tex/latex/base/ot1enc.dfu
INPUT /nix/store/0j7h6f8afld0zgbignbd0fgzkg86g7gy-texlive-combined-2017/share/texmf/tex/latex/base/omsenc.dfu
INPUT /nix/store/0j7h6f8afld0zgbignbd0fgzkg86g7gy-texlive-combined-2017/share/texmf/tex/latex/base/omsenc.dfu
INPUT /nix/store/0j7h6f8afld0zgbignbd0fgzkg86g7gy-texlive-combined-2017/share/texmf/tex/latex/beamer/beamerthemeBerlin.sty
INPUT /nix/store/0j7h6f8afld0zgbignbd0fgzkg86g7gy-texlive-combined-2017/share/texmf/tex/latex/beamer/beamerthemeBerlin.sty
INPUT /nix/store/0j7h6f8afld0zgbignbd0fgzkg86g7gy-texlive-combined-2017/share/texmf/tex/latex/beamer/beamerouterthememiniframes.sty
INPUT /nix/store/0j7h6f8afld0zgbignbd0fgzkg86g7gy-texlive-combined-2017/share/texmf/tex/latex/beamer/beamerouterthememiniframes.sty
INPUT /nix/store/0j7h6f8afld0zgbignbd0fgzkg86g7gy-texlive-combined-2017/share/texmf/tex/latex/beamer/beamercolorthemewhale.sty
INPUT /nix/store/0j7h6f8afld0zgbignbd0fgzkg86g7gy-texlive-combined-2017/share/texmf/tex/latex/beamer/beamercolorthemewhale.sty
INPUT /nix/store/0j7h6f8afld0zgbignbd0fgzkg86g7gy-texlive-combined-2017/share/texmf/tex/latex/beamer/beamercolorthemeorchid.sty
INPUT /nix/store/0j7h6f8afld0zgbignbd0fgzkg86g7gy-texlive-combined-2017/share/texmf/tex/latex/beamer/beamercolorthemeorchid.sty
INPUT /nix/store/0j7h6f8afld0zgbignbd0fgzkg86g7gy-texlive-combined-2017/share/texmf/tex/latex/beamer/beamerinnerthemerectangles.sty
INPUT /nix/store/0j7h6f8afld0zgbignbd0fgzkg86g7gy-texlive-combined-2017/share/texmf/tex/latex/beamer/beamerinnerthemerectangles.sty
INPUT /nix/store/0j7h6f8afld0zgbignbd0fgzkg86g7gy-texlive-combined-2017/share/texmf/tex/latex/beamer/beamercolorthemedolphin.sty
INPUT /nix/store/0j7h6f8afld0zgbignbd0fgzkg86g7gy-texlive-combined-2017/share/texmf/tex/latex/beamer/beamercolorthemedolphin.sty
INPUT /nix/store/0j7h6f8afld0zgbignbd0fgzkg86g7gy-texlive-combined-2017/share/texmf/tex/latex/beamer/beamerfontthemeserif.sty
INPUT /nix/store/0j7h6f8afld0zgbignbd0fgzkg86g7gy-texlive-combined-2017/share/texmf/tex/latex/beamer/beamerfontthemeserif.sty
INPUT /nix/store/0j7h6f8afld0zgbignbd0fgzkg86g7gy-texlive-combined-2017/share/texmf/tex/latex/fundus-calligra/calligra.sty
INPUT /nix/store/0j7h6f8afld0zgbignbd0fgzkg86g7gy-texlive-combined-2017/share/texmf/tex/latex/fundus-calligra/calligra.sty
INPUT header.aux
INPUT header.aux
INPUT content.aux
INPUT content.aux
OUTPUT header.aux
INPUT /nix/store/0j7h6f8afld0zgbignbd0fgzkg86g7gy-texlive-combined-2017/share/texmf/tex/context/base/mkii/supp-pdf.mkii
INPUT /nix/store/0j7h6f8afld0zgbignbd0fgzkg86g7gy-texlive-combined-2017/share/texmf/tex/context/base/mkii/supp-pdf.mkii
INPUT /nix/store/0j7h6f8afld0zgbignbd0fgzkg86g7gy-texlive-combined-2017/share/texmf/tex/latex/oberdiek/epstopdf-base.sty
INPUT /nix/store/0j7h6f8afld0zgbignbd0fgzkg86g7gy-texlive-combined-2017/share/texmf/tex/latex/oberdiek/epstopdf-base.sty
INPUT /nix/store/0j7h6f8afld0zgbignbd0fgzkg86g7gy-texlive-combined-2017/share/texmf/tex/latex/oberdiek/grfext.sty
INPUT /nix/store/0j7h6f8afld0zgbignbd0fgzkg86g7gy-texlive-combined-2017/share/texmf/tex/latex/oberdiek/grfext.sty
INPUT /nix/store/0j7h6f8afld0zgbignbd0fgzkg86g7gy-texlive-combined-2017/share/texmf/tex/latex/latexconfig/epstopdf-sys.cfg
INPUT /nix/store/0j7h6f8afld0zgbignbd0fgzkg86g7gy-texlive-combined-2017/share/texmf/tex/latex/latexconfig/epstopdf-sys.cfg
INPUT /nix/store/0j7h6f8afld0zgbignbd0fgzkg86g7gy-texlive-combined-2017/share/texmf/tex/latex/hyperref/nameref.sty
INPUT /nix/store/0j7h6f8afld0zgbignbd0fgzkg86g7gy-texlive-combined-2017/share/texmf/tex/latex/hyperref/nameref.sty
INPUT /nix/store/0j7h6f8afld0zgbignbd0fgzkg86g7gy-texlive-combined-2017/share/texmf/tex/generic/oberdiek/gettitlestring.sty
INPUT /nix/store/0j7h6f8afld0zgbignbd0fgzkg86g7gy-texlive-combined-2017/share/texmf/tex/generic/oberdiek/gettitlestring.sty
INPUT header.out
INPUT header.out
INPUT header.out
INPUT header.out
INPUT ./header.out
INPUT ./header.out
OUTPUT header.out
INPUT /nix/store/0j7h6f8afld0zgbignbd0fgzkg86g7gy-texlive-combined-2017/share/texmf/tex/latex/translator/translator-basic-dictionary-English.dict
INPUT /nix/store/0j7h6f8afld0zgbignbd0fgzkg86g7gy-texlive-combined-2017/share/texmf/tex/latex/translator/translator-basic-dictionary-English.dict
INPUT /nix/store/0j7h6f8afld0zgbignbd0fgzkg86g7gy-texlive-combined-2017/share/texmf/tex/latex/translator/translator-bibliography-dictionary-English.dict
INPUT /nix/store/0j7h6f8afld0zgbignbd0fgzkg86g7gy-texlive-combined-2017/share/texmf/tex/latex/translator/translator-bibliography-dictionary-English.dict
INPUT /nix/store/0j7h6f8afld0zgbignbd0fgzkg86g7gy-texlive-combined-2017/share/texmf/tex/latex/translator/translator-environment-dictionary-English.dict
INPUT /nix/store/0j7h6f8afld0zgbignbd0fgzkg86g7gy-texlive-combined-2017/share/texmf/tex/latex/translator/translator-environment-dictionary-English.dict
INPUT /nix/store/0j7h6f8afld0zgbignbd0fgzkg86g7gy-texlive-combined-2017/share/texmf/tex/latex/translator/translator-months-dictionary-English.dict
INPUT /nix/store/0j7h6f8afld0zgbignbd0fgzkg86g7gy-texlive-combined-2017/share/texmf/tex/latex/translator/translator-months-dictionary-English.dict
INPUT /nix/store/0j7h6f8afld0zgbignbd0fgzkg86g7gy-texlive-combined-2017/share/texmf/tex/latex/translator/translator-numbers-dictionary-English.dict
INPUT /nix/store/0j7h6f8afld0zgbignbd0fgzkg86g7gy-texlive-combined-2017/share/texmf/tex/latex/translator/translator-numbers-dictionary-English.dict
INPUT /nix/store/0j7h6f8afld0zgbignbd0fgzkg86g7gy-texlive-combined-2017/share/texmf/tex/latex/translator/translator-theorem-dictionary-English.dict
INPUT /nix/store/0j7h6f8afld0zgbignbd0fgzkg86g7gy-texlive-combined-2017/share/texmf/tex/latex/translator/translator-theorem-dictionary-English.dict
INPUT header.nav
INPUT header.nav
INPUT /nix/store/0j7h6f8afld0zgbignbd0fgzkg86g7gy-texlive-combined-2017/share/texmf/fonts/tfm/public/cm/cmss8.tfm
INPUT /nix/store/0j7h6f8afld0zgbignbd0fgzkg86g7gy-texlive-combined-2017/share/texmf/fonts/tfm/public/cm/cmss17.tfm
INPUT /nix/store/0j7h6f8afld0zgbignbd0fgzkg86g7gy-texlive-combined-2017/share/texmf/fonts/tfm/public/cm/cmss8.tfm
INPUT /nix/store/0j7h6f8afld0zgbignbd0fgzkg86g7gy-texlive-combined-2017/share/texmf/fonts/tfm/public/cm/cmss8.tfm
INPUT /nix/store/0j7h6f8afld0zgbignbd0fgzkg86g7gy-texlive-combined-2017/share/texmf/fonts/map/pdftex/updmap/pdftex.map
INPUT header.toc
INPUT header.toc
INPUT /nix/store/0j7h6f8afld0zgbignbd0fgzkg86g7gy-texlive-combined-2017/share/texmf/fonts/tfm/public/cm/cmss10.tfm
OUTPUT content.aux
INPUT content.tex
INPUT content.tex
OUTPUT header.nav
OUTPUT header.toc
OUTPUT header.snm
INPUT header.aux
INPUT content.aux
INPUT content.aux
INPUT ./header.out
INPUT ./header.out
INPUT /nix/store/0j7h6f8afld0zgbignbd0fgzkg86g7gy-texlive-combined-2017/share/texmf/fonts/type1/public/amsfonts/cm/cmss10.pfb
INPUT /nix/store/0j7h6f8afld0zgbignbd0fgzkg86g7gy-texlive-combined-2017/share/texmf/fonts/type1/public/amsfonts/cm/cmss12.pfb
INPUT /nix/store/0j7h6f8afld0zgbignbd0fgzkg86g7gy-texlive-combined-2017/share/texmf/fonts/type1/public/amsfonts/cm/cmss17.pfb
INPUT /nix/store/0j7h6f8afld0zgbignbd0fgzkg86g7gy-texlive-combined-2017/share/texmf/fonts/type1/public/amsfonts/cm/cmss8.pfb
